Noel’s Learning Journey in Visual Analytics - Hands-on Exercise 09 - Information Dashboard
…
4.1. Preparing the Data

First, we create a table recording the total sales of products by month:

sales_report <- coffeechain %>%
  filter(Date >= "2013-01-01") %>%
  mutate(Month = month(Date)) %>%
  group_by(Month, Product) %>%
  summarise(Sales = sum(Sales)) %>%
  ungroup() %>%
  select(Month, Product, Sales)

sales_report

# A tibble: 156 × 3
   Month Product           Sales
   <dbl> <chr>             <dbl>
 1     1 Amaretto           1210
 2     1 Caffe Latte        1653
 3     1 Caffe Mocha        3604
 4     1 Chamomile          3313
 5     1 Colombian          5439
 6     1 Darjeeling         3178
 7     1 Decaf Espresso     3493
 8     1 Decaf Irish Cream  2656
 9     1 Earl Grey          2867
10     1 Green Tea          1399
# ℹ 146 more rows
…
